Assignment 4
…
parking_clean

# A tibble: 3,149 × 12
   lastupdated         status_timestamp    zone_number status_description
   <dttm>              <dttm>                    <dbl> <chr>             
 1 2025-01-22 03:44:37 2024-10-11 04:06:49        7539 Unoccupied        
 2 2025-01-22 03:44:37 2024-10-01 23:22:55        7550 Present           
 3 2025-01-22 03:44:37 2024-10-01 22:50:25        7550 Unoccupied        
 4 2025-01-22 03:44:37 2024-10-01 22:48:56        7549 Unoccupied        
 5 2025-01-22 03:44:37 2024-10-01 22:53:36        7549 Unoccupied        
 6 2025-01-22 03:44:37 2024-10-01 22:33:54        7550 Present           
 7 2025-01-22 03:44:37 2024-10-11 02:41:57        7539 Present           
 8 2025-01-10 02:44:36 2024-08-21 04:13:39        7392 Unoccupied        
 9 2024-12-30 00:44:37 2024-08-18 08:23:46        7394 Unoccupied        
10 2025-01-10 02:44:36 2024-08-14 09:22:05        7392 Unoccupied        
# ℹ 3,139 more rows
# ℹ 8 more variables: kerbsideid <dbl>, location <chr>, latitude <dbl>,
#   longitude <dbl>, hour <int>, day_of_week <ord>, date <date>, occupied <lgl>
…
The persistence table shows that the top ten zones all have a persist_share of 1. This means these zones were above the median hourly occupancy threshold in every observed hourly period used in the calculation.

This is important because it shows that some zones are not merely busy on average, but repeatedly busy across time. The overlap between this persistence table and the earlier occupancy ranking, like zone 7089, suggests that a smaller subset of zones experiences more durable congestion than the rest of the network.

These summaries make it possible to distinguish between zones that are always busy and zones that are only occasionally busy.

2.3.2 Aspect 2: How does occupancy change through the day?

The hourly summary shows when parking demand is strongest across the day. This helps answer whether congestion is tied to business hours, evening activity, or a broader all-day pattern.

# A tibble: 24 × 2
    hour occ_rate
   <int>    <dbl>
 1     0    0.703
 2     1    0.581
 3     2    0.598
 4     3    0.605
 5     4    0.642
 6     5    0.667
 7     6    0.571
 8     7    0.440
 9     8    0.5  
10     9    0.410
# ℹ 14 more rows
…
